    .ifndef FADER_I
	.equ	FADER_I, 1
/* ------------------------------------------------------- */
	.equ	FADER0_FULL,    0x400
	.equ	FADER1_FULL,    0x8400
/* ------------------------------------------------------- */
    .endif
