	.ifndef	FILES_I
	.equ	FILES_I, 1

		/* Note: For now this must be kept in sync
		 * with the list of filenames in
		 * cdhead/sp.s
		 */
		FTABLE_ENTRY_R11A	= 0
		FTABLE_ENTRY_R11B	= 1
		FTABLE_ENTRY_R11C	= 2
		FTABLE_ENTRY_R11D	= 3
		FTABLE_ENTRY_LOGO_M	= 4
		FTABLE_ENTRY_LOGO_S	= 5
		FTABLE_ENTRY_SSEL	= 6
		FTABLE_ENTRY_R12A	= 7
		FTABLE_ENTRY_R12B	= 8
		FTABLE_ENTRY_R12C	= 9
		FTABLE_ENTRY_R12D	= 10
		FTABLE_ENTRY_TITLE	= 11
		FTABLE_ENTRY_PCM	= 12
		FTABLE_ENTRY_WARP	= 13
		FTABLE_ENTRY_ATTACKM	= 14
		FTABLE_ENTRY_ATTACKB	= 15
		FTABLE_ENTRY_IPX	= 16
		FTABLE_ENTRY_OPNSTM	= 17
		FTABLE_ENTRY_OPENM	= 18
		FTABLE_ENTRY_OPENS	= 19
		FTABLE_ENTRY_COME	= 20

	.endif
