    .ifndef M_BANK_I
	.equ	M_BANK_I, 1
/* ------------------------------------------------------- */
	.equ	SUBCPU_1M_MEMBASE,  0x20000

	.equ	SUBCPU_M2_MEMBASE,  0x200000
/* ------------------------------------------------------- */
    .endif
