    .ifndef M_BIOS_I
	.equ	M_BIOS_I, 1
/* ------------------------------------------------------- */
	.equ	BIOS_ENTRY_RESET,    0x280
	.equ	BIOS_ENTRY_SECURITY, 0x364
/* ------------------------------------------------------- */
    .endif
