	.ifndef M_MAP_I
	.equ	M_MAP_I, 1

	.include "src/inc/misc.i"
/* ------------------------------------------------------- */
	.equ	ipx_addr_base,		0xff0000
	.equ	ipx_addr_base_l,	(ADDR_SIGN_MASK+ipx_addr_base)
	.equ	ipx_buffer_size,	0x001000
	.equ	ipx_is_attack,		0xff0580
	.equ	m_vint_call_mask,	0xff0583
	.equ	m_vint_req_bit,		0
	.equ	m_vint_palfade_bit,	1
	.equ	m_vint_z80load_bit,	2
	.equ	SVAR_L_ff0590,		0xff0590
	.equ	SVAR_W_ff0594,		0xff0594
	.equ	m_vdpmode1_cpy,		0xff0596
	.equ	m_vdpmode1_display_bit,	6
/* ------------- */
	.equ	mmd_level_buffer,	0xff1000
	.equ	ip_bootstrap_buffer,	0xff1000
	.equ	mmd_level_buffer_end,	0xff1200
	.equ	ipx_level_act,		0xff1210
	.equ	SVAR_B_ff1212,		0xff1212
	.equ	SVAR_L_ff1212,		0xff1222
	.equ	ipx_level_time,		0xff123d
	.equ	ipx_level_future,	0xff127a
	.equ	m_level_b_FF13F8,	0xff13f8
	.equ	m_level_l_FF13FC,	0xff13fc
/* ------------- */
	.equ	mmd_text_addr,		0xff2000
	.equ	mmd_text_size,		0x002800
	.equ	mmd_title_size,		0x006000
	.equ	mmd_warp_size,		0x003000
/* ------------- */
	.equ	mmd_ram_arena,		0xff8000
	.equ	mmd_ram_arena_l,	(ADDR_SIGN_MASK+mmd_ram_arena)
	.equ	mmd_ram_arena2,		0xffc000
	.equ	mmd_ram_arena2_l,	(ADDR_SIGN_MASK+mmd_ram_arena2)
	.equ	open_inner_loop_count,	0xffffc080
	.equ	SVAR_L_ffc082,		0xffffc082
	.equ	SVAR_L_ffe000_s,	0xffe000
	.equ	SVAR_L_ffe000,		(ADDR_SIGN_MASK+SVAR_L_ffe000_s)
	.equ	m_obj_mem,		0xffffe300
	.equ	m_obj_warp_mem,		0xffffe400
	.equ	m_obj_warp_mem_end,	0xffffeb00
	.equ	m_mmd_parallax_buf,	0xfffff400
	.equ	m_mmd_parallax_buf_end,	0xfffff5C0
	.equ	m_mmd_fff600,		0xfffff600
	.equ	m_mmd_palette,		0xfffff900
	.equ	SVAR_L_fffa00,		0xfffffa00
	.equ	m_vint_num,		0xfffffa40
	.equ	m_timer,		0xfffa42
	.equ	m_timer_l,		(ADDR_SIGN_MASK+m_timer)
	.equ	SVAR_W_fffa44,		0xfffa44
	.equ	SVAR_W_fffa44_l,	(ADDR_SIGN_MASK+SVAR_W_fffa44)
	.equ	m_sr_backup,		0xfffa46
	.equ	m_sr_backup_l,		(ADDR_SIGN_MASK+m_sr_backup)
	.equ	m_sr_backup_2,		0xfffa48
	.equ	m_sr_backup_2_l,	(ADDR_SIGN_MASK+m_sr_backup_2)
	.equ	SVAR_B_fffa4a,		0xfffffa4a
	.equ	SVAR_B_fffa4c,		0xfffffa4c
	.equ	m_lib_rand_val,		0xfffffaa4
	.equ	SVAR_P_fffb00,		0xfffffb00
	.equ	SVAR_P_fffb58,		0xfffffb58
	.equ	SVAR_P_fffb6a,		0xfffffb6a
	.equ	mmd_ram_arena_end,	0xfffffc00

	.equ	mmd_ram_arena_size_l,	((mmd_ram_arena_end-mmd_ram_arena_l)/4)
/* ------------------------------------------------------- */
	.endif
