    .ifndef M_VECTOR_I
	.equ	M_VECTOR_I, 1
/* ------------------------------------------------------- */
	.equ	M_VECTOR_RESET, 0xfffffd02
	.equ	M_VECTOR_VINT,  0xfffffd08
	.equ	M_VECTOR_HINT,  0xfffffd0e
/* ------------------------------------------------------- */
    .endif
