    .ifndef S_BANK_I
	.equ	S_BANK_I, 1
/* ------------------------------------------------------- */
	.equ	SUBCPU_M2_BANK1, 0x40000
	.equ	SUBCPU_M2_BANK2, 0x80000
	.equ	SUBCPU_M2_BANK3, 0xc0000
/* ------------------------------------------------------- */
    .endif
