    .ifndef S_SUBREG_I
	.equ	S_SUBREG_I, 1
/* ------------------------------------------------------- */
	.equ	SUBCPU_REG01_S,     0xff8001
	.equ	SUBCPU_MEMMODE_S,   0xff8003
	.equ	SUBCPU_MEMMODE_W,   SUBCPU_MEMMODE_S-0xff0000
	.equ	SUBCPU_MEMMODE,     0xff000000+SUBCPU_MEMMODE_S
	.equ	SUBCPU_CDCMODE_S,   0xff8004
	.equ	SUBCPU_CDCMODE_W,   SUBCPU_CDCMODE_S-0xff0000
	.equ	SUBCPU_E_FLG_S,     0xff800e
	.equ	SUBCPU_E_FLG_W,     SUBCPU_E_FLG_S-0xff0000
	.equ	SUBCPU_E_FLG,       0xff000000+SUBCPU_E_FLG_S
	.equ	SUBCPU_SCOM_FLG_S,  0xff800f
	.equ	SUBCPU_SCOM_FLG_W,  SUBCPU_SCOM_FLG_S-0xff0000
	.equ	SUBCPU_SCOM_FLG,    0xff000000+SUBCPU_SCOM_FLG_S
	.equ	SUBCPU_CMD_BUFFER_S, 0xff8010
	.equ	SUBCPU_CMD_BUFFER_W, SUBCPU_CMD_BUFFER_S-0xff0000
	.equ	SUBCPU_CMD_BUFFER,  0xff000000+SUBCPU_CMD_BUFFER_S
	.equ	SUBCPU_STAT_BUFFER_S, 0xff8020
	.equ	SUBCPU_STAT_BUFFER_W, SUBCPU_STAT_BUFFER_S-0xff0000
	.equ	SUBCPU_STAT_BUFFER, 0xff000000+SUBCPU_STAT_BUFFER_S
	.equ	SUBCPU_TIMER_VAL_S, 0xff8031
	.equ	SUBCPU_TIMER_VAL_W, SUBCPU_TIMER_VAL_S-0xff0000
	.equ	SUBCPU_TIMER_VAL,   0xff000000+SUBCPU_TIMER_VAL_S
	.equ	SUBCPU_INT_MASK_S,  0xff8033
	.equ	SUBCPU_INT_MASK_W,  SUBCPU_INT_MASK_S-0xff0000
	.equ	SUBCPU_INT_MASK,    0xff000000+SUBCPU_INT_MASK_S

	.include "src/inc/subreg.i"
/* ------------------------------------------------------- */
    .endif
