    .ifndef SUBCALL_I
	.equ	SUBCALL_I, 1
/* ------------------------------------------------------- */
	.equ	SUBCALL_NULL,        0
	.equ	SUBCALL_LOAD_R11A,   1
	.equ	SUBCALL_LOAD_R11B,   2
	.equ	SUBCALL_LOAD_R11C,   3
	.equ	SUBCALL_LOAD_R11D,   4
	.equ	SUBCALL_LOAD_LOGO,   5
	.equ	SUBCALL_LOAD_SSEL,   6
	.equ	SUBCALL_LOAD_R12A,   7
	.equ	SUBCALL_LOAD_R12B,   8
	.equ	SUBCALL_LOAD_R12C,   9
	.equ	SUBCALL_LOAD_R12D,   10
	.equ	SUBCALL_LOAD_TITLE,  11
	.equ	SUBCALL_LOAD_WARP,   12
	.equ	SUBCALL_LOAD_ATTACK, 13

	.equ	SUBCALL_FADERS_FADE, 14
	.equ	SUBCALL_CDDA_TRACK2, 15
	.equ	SUBCALL_CDDA_ATTACK, 16
	.equ	SUBCALL_CDDA_TITLE,  17
	.equ	SUBCALL_CDDA_COME,   18
	.equ	SUBCALL_CDDA_TRACK6, 19
	.equ	SUBCALL_CDDA_TRACK7, 20
	.equ	SUBCALL_CDDA_NULL0,  21
	.equ	SUBCALL_CDDA_NULL1,  22
	.equ	SUBCALL_CDDA_NULL2,  23
	.equ	SUBCALL_CDDA_NULL3,  24
	.equ	SUBCALL_CDDA_NULL4,  25
	.equ	SUBCALL_CDDA_NULL5,  26
	.equ	SUBCALL_CDDA_NULL6,  27
	.equ	SUBCALL_CDDA_NULL7,  28
	.equ	SUBCALL_CDDA_NULL8,  29
	.equ	SUBCALL_CDDA_NULL9,  30
	.equ	SUBCALL_CDDA_NULL10, 31
	.equ	SUBCALL_CDDA_NULL11, 32
	.equ	SUBCALL_CDDA_NULL12, 33
	.equ	SUBCALL_CDDA_NULL13, 34
    
	.equ	SUBCALL_LOAD_IPX,    35
	.equ	SUBCALL_LOAD_OPEN,   36
	.equ	SUBCALL_LOAD_COME,   37
/* ------------------------------------------------------- */
    .endif
