    .ifndef VDP_I
	.equ	VDP_I, 1
/* ------------------------------------------------------- */
	.equ	VDP_DATA, 0xc00000
	.equ	VDP_CTRL, 0xc00004
	.equ	VDP_ADDR, VDP_CTRL

	.equ	VDP_VRAM_WRITE,		0x40000000
	.equ	VDP_VSRAM_WRITE,	0x40000010
	.equ	VDP_VRAM_WRITE_H,	(VDP_VRAM_WRITE>>16)
	.equ	VDP_VRAM_WRITE_L,	(VDP_VRAM_WRITE&0xFF)
	.equ	VDP_CRAM_WRITE,		0xc0000000
	.equ	VDP_PAL_ENTRY_SIZE,	2

	.equ	VDPREG_MASK,	0x8000

	.equ	VDP_VRAM_SIZE,	0x10000

	.equ	VDPREG_NT_MODE_1,	(VDPREG_MASK+(0x00<<8))
	.equ	VDPREG_NT_MODE_2,	(VDPREG_MASK+(0x01<<8))
	.equ	VDPREG_NT_SCROLL_A,	(VDPREG_MASK+(0x02<<8))
	.equ	VDPREG_NT_WINDOW,	(VDPREG_MASK+(0x03<<8))
	.equ	VDPREG_NT_SCROLL_B,	(VDPREG_MASK+(0x04<<8))
	.equ	VDPREG_SPRITE_BASE,	(VDPREG_MASK+(0x05<<8))
	.equ	VDPREG_COL_BG,		(VDPREG_MASK+(0x07<<8))
	.equ	VDPREG_HINT_RASTER,	(VDPREG_MASK+(0x0A<<8))
	.equ	VDPREG_MODE_3,		(VDPREG_MASK+(0x0B<<8))
	.equ	VDPREG_MODE_4,		(VDPREG_MASK+(0x0C<<8))
	.equ	VDPREG_HSCROLL_BASE,	(VDPREG_MASK+(0x0D<<8))
	.equ	VDPREG_AUTOINC,		(VDPREG_MASK+(0x0F<<8))
	.equ	VDPREG_SCROLL_SZ,	(VDPREG_MASK+(0x10<<8))
	.equ	VDPREG_WINDOW_H,	(VDPREG_MASK+(0x11<<8))
	.equ	VDPREG_WINDOW_V,	(VDPREG_MASK+(0x12<<8))
	.equ	VDPREG_DMALEN_L,	(VDPREG_MASK+(0x13<<8))
	.equ	VDPREG_DMALEN_H,	(VDPREG_MASK+(0x14<<8))
	.equ	VDPREG_DMASRC_L,	(VDPREG_MASK+(0x15<<8))
	.equ	VDPREG_DMASRC_M,	(VDPREG_MASK+(0x16<<8))
	.equ	VDPREG_DMASRC_H,	(VDPREG_MASK+(0x17<<8))

	.equ	VDP_ADDR_DMA_MASK,	0x00000080
	.equ	VDP_ADDR_DMA_MASK_H,	(VDP_ADDR_DMA_MASK>>16)
	.equ	VDP_ADDR_DMA_MASK_L,	(VDP_ADDR_DMA_MASK&0xFF)
/* ------------------------------------------------------- */
    .endif
